Untitled
…
df_unbreak <- tibble::tibble(
  id = text,
  par_num = paragraph_num,
  sentence_num = sentence_num,
  article_len = article_len,
  content = post
)

df_break

## # A tibble: 208 x 2
##    id            content                                                        
##    <chr>         <chr>                                                          
##  1 AST_100_1.txt 
##  2 AST_100_10.t 
##  3 AST_100_11.t 
##  4 AST_100_12.t 
##  5 AST_100_13.t 
##  6 AST_100_14.t 
##  7 AST_100_2.txt 
##  8 AST_100_3.txt 
##  9 AST_100_4.txt 
## 10 AST_100_5.txt 
## #  with 198 more rows

df_unbreak

## # A tibble: 208 x 5
##    id        par_num sentence_num article_len content                           
##    <chr>       <dbl>        <dbl>       <dbl> <chr>                             
##  1 AST_100_       4           12         614  
##  2 AST_100_       5           13         703  
##  3 AST_100_       5           16         520  
##  4 AST_100_       8           17         636  
##  5 AST_100_       4           18         751  
##  6 AST_100_       4           14         778  
##  7 AST_100_       5           10         512  
##  8 AST_100_       6           11         507  
##  9 AST_100_       4           11         519  
## 10 AST_100_       4           13         518  
## #  with 198 more rows
…
